{
    "defaultSeverity": "warn",
    "extends": ["tslint:recommended"],
    "jsRules": {},
    "rules": {
        "no-any": true,
        "no-for-in-array": true,
        "arrow-parens": true,
        "arrow-return-shorthand": true,
        "await-promise": true,
        "align": [true, "parameters"],
        "quotemark": [true, "single"],
        "object-literal-sort-keys": false,
        "semicolon": [true, "always", "ignore-bound-class-methods"]
    },
    "rulesDirectory": []
}
